<?xml version="1.0" encoding="utf-8"?>
<!-- Generator: Adobe Illustrator 19.0.0, SVG Export Plug-In . SVG Version: 6.00 Build 0)  -->
<svg version="1.1" id="Layer_1" xmlns="http://www.w3.org/2000/svg" xmlns:xlink="http://www.w3.org/1999/xlink" x="0px" y="0px"
	 viewBox="0 0 805.5 228" style="enable-background:new 0 0 805.5 228;" xml:space="preserve">
<style type="text/css">
	.st0{fill:#892E2E;stroke:#000000;stroke-miterlimit:10;}
	.st1{fill:#0F0F0F;}
	.st2{font-family:'Vani';}
	.st3{font-size:75px;}
	.st4{fill:#FFFFFF;}
	.st5{fill:url(#XMLID_180_);}
	.st6{fill:url(#XMLID_181_);}
	.st7{font-size:60px;}
	.st8{fill:url(#XMLID_182_);}
	.st9{fill:url(#XMLID_183_);}
	.st10{fill:url(#XMLID_184_);}
</style>
<rect id="XMLID_7_" x="-375.9" y="294.2" class="st0" width="1863.2" height="1643.1"/>
<text id="XMLID_18_" transform="matrix(1 0 0 1 234.5271 138.514)" class="st1 st2 st3">Airline Reviews</text>
<text id="XMLID_4_" transform="matrix(1 0 0 1 106.5276 -404.486)" class="st4 st2 st3">Airline Reviews</text>
<g id="XMLID_211_">
	<path id="XMLID_214_" class="st4" d="M1169.8,25.5c-0.2,0-0.5,0.1-0.9,0.2s-0.7,0.3-0.9,0.4c-0.5,0.3-0.8,0.5-0.9,0.7
		s-0.5,0.6-0.9,1.2c-0.9,1.3-1.8,2.6-2.5,3.9c-0.8,1.3-1.7,3-2.9,5c-0.4,0.8-0.7,1.4-0.9,1.8s-0.2,1.1-0.2,2v4.8
		c0,0.4,0.1,0.8,0.3,1.1s0.5,0.6,0.9,0.7c0.2,0.1,0.7,0.2,1.3,0.3s1.1,0.2,1.5,0.2v1.2h-11.7V48c0.3,0,0.8-0.1,1.5-0.1
		s1.1-0.1,1.4-0.3c0.4-0.2,0.7-0.4,0.9-0.7s0.2-0.7,0.2-1.1v-6.1c0-0.2-0.1-0.5-0.3-1s-0.5-1.1-0.8-1.7c-0.7-1.4-1.5-2.8-2.3-4.4
		c-0.9-1.6-1.6-2.9-2.2-4.1c-0.4-0.7-0.7-1.2-1-1.5s-0.6-0.6-1-0.9c-0.3-0.2-0.6-0.3-1-0.4s-0.7-0.2-1.1-0.2v-1.2h10.6v1.2
		c-1.2,0-2,0.1-2.5,0.2s-0.7,0.3-0.7,0.6c0,0.1,0,0.2,0.1,0.4s0.2,0.4,0.3,0.7c0.2,0.3,0.3,0.7,0.5,1s0.4,0.8,0.6,1.1
		c0.6,1,1.1,2.1,1.7,3.1c0.6,1,1.3,2.4,2.3,4.1c1.8-3,3.2-5.3,4.2-6.9s1.5-2.7,1.5-3c0-0.3-0.1-0.5-0.3-0.7s-0.5-0.3-0.8-0.4
		c-0.3-0.1-0.7-0.2-1.1-0.2s-0.8-0.1-1.1-0.1v-1.2h8.7V25.5z"/>
	<path id="XMLID_216_" class="st4" d="M1193.6,27.2c1.1,1.1,2,2.5,2.6,4.2c0.6,1.6,0.9,3.4,0.9,5.4c0,2-0.3,3.8-0.9,5.4
		s-1.5,3-2.6,4.1c-1.1,1.1-2.4,2-3.8,2.6s-3,0.9-4.6,0.9c-1.7,0-3.3-0.3-4.8-1s-2.7-1.6-3.8-2.7c-1.1-1.1-1.9-2.5-2.5-4.1
		s-0.9-3.4-0.9-5.2c0-2,0.3-3.8,0.9-5.4c0.6-1.6,1.5-3,2.6-4.1c1.1-1.1,2.4-2,3.8-2.6s3-0.9,4.6-0.9c1.7,0,3.2,0.3,4.7,0.9
		S1192.6,26.1,1193.6,27.2z M1191,44.9c0.7-1.1,1.1-2.3,1.4-3.6s0.4-2.9,0.4-4.5c0-1.7-0.2-3.3-0.5-4.7c-0.3-1.4-0.8-2.6-1.5-3.7
		c-0.6-1-1.5-1.8-2.4-2.3s-2.1-0.8-3.3-0.8c-1.4,0-2.6,0.3-3.6,1s-1.8,1.5-2.4,2.6c-0.6,1-1,2.2-1.3,3.6c-0.3,1.4-0.4,2.8-0.4,4.4
		c0,1.7,0.2,3.2,0.5,4.6s0.8,2.6,1.4,3.6c0.6,1,1.4,1.8,2.4,2.4s2.1,0.9,3.4,0.9c1.3,0,2.4-0.3,3.4-0.9S1190.4,46,1191,44.9z"/>
	<path id="XMLID_219_" class="st4" d="M1228.4,25.5c-0.3,0-0.8,0.1-1.4,0.2s-1.1,0.3-1.5,0.6c-0.4,0.3-0.7,0.8-0.8,1.7
		c-0.2,0.8-0.2,1.9-0.2,3.1v10.8c0,1.4-0.3,2.6-0.9,3.6c-0.6,1-1.3,1.9-2.3,2.5c-0.9,0.6-1.9,1.1-2.9,1.4c-1,0.3-2,0.4-2.9,0.4
		c-1.5,0-2.8-0.2-4-0.6c-1.2-0.4-2.2-0.9-3-1.6c-0.8-0.7-1.4-1.4-1.8-2.3c-0.4-0.9-0.6-1.8-0.6-2.7V27.9c0-0.4-0.1-0.8-0.2-1
		c-0.1-0.3-0.4-0.5-0.8-0.8c-0.3-0.2-0.7-0.3-1.1-0.4s-0.8-0.2-1.1-0.2v-1.2h10.4v1.2c-0.3,0-0.7,0.1-1.2,0.2
		c-0.5,0.1-0.9,0.2-1.1,0.3c-0.4,0.1-0.7,0.4-0.8,0.7c-0.1,0.3-0.2,0.7-0.2,1.1v13.8c0,0.7,0.1,1.4,0.2,2.1c0.1,0.7,0.4,1.4,0.9,2
		c0.5,0.6,1.1,1.2,1.9,1.6c0.8,0.4,1.9,0.6,3.2,0.6c1.3,0,2.4-0.2,3.2-0.6c0.9-0.4,1.6-0.9,2.1-1.6c0.5-0.6,0.8-1.3,1-2
		c0.2-0.7,0.3-1.4,0.3-2.1V31.3c0-1.3-0.1-2.4-0.3-3.2c-0.2-0.8-0.5-1.4-0.8-1.6c-0.4-0.3-1-0.5-1.7-0.7c-0.7-0.2-1.3-0.3-1.6-0.3
		v-1.2h10.2V25.5z"/>
	<path id="XMLID_221_" class="st4" d="M1257.6,49.2h-6.7c-1.5-2.3-2.8-4.3-4-6c-1.2-1.7-2.5-3.5-3.9-5.3h-2.5v7.9
		c0,0.4,0.1,0.8,0.2,1.1c0.1,0.3,0.4,0.5,0.8,0.7c0.2,0.1,0.6,0.2,1.1,0.2s1,0.1,1.3,0.1v1.2h-10.5V48c0.3,0,0.7-0.1,1.2-0.1
		c0.5-0.1,0.9-0.1,1.1-0.2c0.4-0.2,0.6-0.4,0.8-0.7s0.2-0.7,0.2-1.1v-18c0-0.4-0.1-0.8-0.2-1.1c-0.1-0.3-0.4-0.6-0.8-0.7
		c-0.3-0.1-0.7-0.2-1.1-0.3c-0.5-0.1-0.9-0.1-1.2-0.2v-1.2h11.5c1.1,0,2,0.1,3,0.3c0.9,0.2,1.8,0.6,2.5,1c0.7,0.5,1.3,1.1,1.7,1.8
		c0.4,0.8,0.7,1.7,0.7,2.7c0,1-0.1,1.8-0.4,2.5c-0.3,0.7-0.7,1.4-1.3,1.9c-0.5,0.5-1.2,0.9-1.9,1.3s-1.6,0.7-2.4,0.9
		c1.2,1.6,2.3,3,3.1,4.1c0.8,1.1,1.8,2.5,3,4.1c0.5,0.7,1,1.2,1.4,1.6c0.4,0.3,0.8,0.6,1.2,0.8c0.3,0.2,0.7,0.3,1.1,0.4
		s0.8,0.1,1.1,0.1V49.2z M1248.3,30.6c0-1.5-0.4-2.7-1.3-3.6c-0.9-0.9-2.1-1.3-3.7-1.3h-3v10.7h2.3c1.6,0,3-0.5,4-1.6
		C1247.8,33.8,1248.3,32.4,1248.3,30.6z"/>
	<path id="XMLID_224_" class="st4" d="M1296,25.5c-0.3,0-0.7,0.1-1.1,0.2s-0.8,0.3-1.1,0.4c-0.4,0.2-0.7,0.6-1,0.9s-0.5,0.8-0.7,1.4
		c-0.8,1.9-2,4.8-3.5,8.7s-3.2,8.1-4.9,12.3h-1.5c-1.7-4.5-3.3-8.9-4.9-13.1s-2.6-7-3.2-8.5c-0.1-0.4-0.3-0.7-0.6-1
		s-0.5-0.5-0.9-0.8c-0.3-0.2-0.7-0.3-1.1-0.4s-0.7-0.2-1.1-0.2v-1.2h10.3v1.2c-0.9,0-1.6,0.1-2.2,0.3s-0.9,0.4-0.9,0.7
		c0,0.1,0,0.3,0.1,0.5s0.1,0.3,0.1,0.4c0.4,1.1,1.1,3,2.1,5.6s2.4,6.3,4.1,11.1c0.9-2.2,1.9-4.7,3.1-7.7s1.9-5,2.3-6.1
		c0.4-1.1,0.6-1.8,0.7-2.2s0.1-0.7,0.1-1c0-0.3-0.1-0.5-0.4-0.7s-0.6-0.3-1-0.5c-0.4-0.1-0.8-0.2-1.2-0.3s-0.8-0.1-1.2-0.1v-1.2h9.3
		V25.5z"/>
	<path id="XMLID_226_" class="st4" d="M1320,27.2c1.1,1.1,2,2.5,2.6,4.2c0.6,1.6,0.9,3.4,0.9,5.4c0,2-0.3,3.8-0.9,5.4
		s-1.5,3-2.6,4.1c-1.1,1.1-2.4,2-3.8,2.6s-3,0.9-4.6,0.9c-1.7,0-3.3-0.3-4.8-1s-2.7-1.6-3.8-2.7c-1.1-1.1-1.9-2.5-2.5-4.1
		s-0.9-3.4-0.9-5.2c0-2,0.3-3.8,0.9-5.4c0.6-1.6,1.5-3,2.6-4.1c1.1-1.1,2.4-2,3.8-2.6s3-0.9,4.6-0.9c1.7,0,3.2,0.3,4.7,0.9
		S1318.9,26.1,1320,27.2z M1317.4,44.9c0.7-1.1,1.1-2.3,1.4-3.6s0.4-2.9,0.4-4.5c0-1.7-0.2-3.3-0.5-4.7c-0.3-1.4-0.8-2.6-1.5-3.7
		c-0.6-1-1.5-1.8-2.4-2.3s-2.1-0.8-3.3-0.8c-1.4,0-2.6,0.3-3.6,1s-1.8,1.5-2.4,2.6c-0.6,1-1,2.2-1.3,3.6c-0.3,1.4-0.4,2.8-0.4,4.4
		c0,1.7,0.2,3.2,0.5,4.6s0.8,2.6,1.4,3.6c0.6,1,1.4,1.8,2.4,2.4s2.1,0.9,3.4,0.9c1.3,0,2.4-0.3,3.4-0.9S1316.7,46,1317.4,44.9z"/>
	<path id="XMLID_229_" class="st4" d="M1340.4,49.2h-11.2V48c0.3,0,0.8-0.1,1.4-0.1s1-0.1,1.3-0.2c0.4-0.2,0.7-0.4,0.8-0.6
		s0.3-0.6,0.3-1.1V27.9c0-0.4-0.1-0.8-0.2-1c-0.1-0.3-0.4-0.5-0.9-0.7c-0.4-0.1-0.8-0.3-1.3-0.4c-0.5-0.1-1-0.2-1.3-0.2v-1.2h11.2
		v1.2c-0.4,0-0.8,0.1-1.3,0.1c-0.5,0.1-0.9,0.2-1.3,0.3c-0.4,0.1-0.7,0.4-0.9,0.7c-0.2,0.3-0.2,0.7-0.2,1.1v18.1
		c0,0.4,0.1,0.7,0.3,1c0.2,0.3,0.5,0.5,0.9,0.7c0.2,0.1,0.6,0.2,1.2,0.3c0.6,0.1,1,0.2,1.4,0.2V49.2z"/>
	<path id="XMLID_231_" class="st4" d="M1357.4,49.8c-1.5,0-2.9-0.3-4.3-0.9s-2.6-1.4-3.6-2.5c-1-1.1-1.9-2.4-2.5-4s-0.9-3.4-0.9-5.4
		s0.3-3.8,0.9-5.4c0.6-1.6,1.5-3,2.5-4.2c1.1-1.2,2.3-2.1,3.8-2.7s3-0.9,4.7-0.9c1.2,0,2.3,0.2,3.3,0.5s1.9,0.7,2.8,1.3l0.7-1.2h1.4
		l0.2,8.9h-1.4c-0.2-0.9-0.5-1.8-0.8-2.8s-0.8-1.9-1.3-2.6c-0.6-0.8-1.2-1.4-2-1.9s-1.7-0.7-2.7-0.7c-1.1,0-2.2,0.3-3.2,0.8
		s-1.8,1.2-2.5,2.2c-0.7,0.9-1.2,2.2-1.6,3.6c-0.4,1.5-0.6,3.1-0.6,4.9c0,1.6,0.2,3.1,0.6,4.4s1,2.5,1.7,3.5c0.8,1,1.6,1.8,2.7,2.3
		s2.2,0.8,3.4,0.8c0.9,0,1.8-0.1,2.6-0.4s1.5-0.7,2.1-1.2c0.6-0.5,1.1-1.1,1.5-1.8s0.8-1.4,1.1-2.1l1.3,0.6c-1,2.5-2.3,4.2-4,5.3
		S1359.7,49.8,1357.4,49.8z"/>
	<path id="XMLID_233_" class="st4" d="M1393.4,41.9l-0.5,7.3h-20.7V48c0.4,0,0.8-0.1,1.4-0.1s1-0.2,1.1-0.2c0.4-0.2,0.6-0.4,0.8-0.7
		s0.2-0.6,0.2-1.1V27.9c0-0.4-0.1-0.7-0.2-1s-0.4-0.5-0.8-0.7c-0.3-0.2-0.7-0.3-1.3-0.4s-1-0.2-1.3-0.2v-1.2h19.3v6h-1.3
		c-0.2-0.9-0.7-1.8-1.5-2.8s-1.5-1.5-2.2-1.6c-0.4,0-0.8-0.1-1.3-0.1s-1.1,0-1.7,0h-3.9v9.9h2.8c0.9,0,1.6-0.1,2-0.3
		s0.8-0.5,1.1-0.9c0.3-0.3,0.5-0.8,0.7-1.4s0.3-1.1,0.4-1.6h1.3v9.8h-1.3c0-0.6-0.2-1.2-0.4-1.8s-0.4-1.1-0.6-1.4
		c-0.4-0.5-0.8-0.8-1.2-0.9s-1.1-0.2-1.8-0.2h-2.8v7.5c0,0.8,0.1,1.3,0.2,1.8s0.3,0.8,0.6,1s0.7,0.4,1.2,0.4s1.3,0.1,2.3,0.1
		c0.4,0,0.9,0,1.5,0s1.2,0,1.6-0.1c0.4,0,0.9-0.1,1.4-0.3s0.8-0.3,1-0.5c0.5-0.6,1.1-1.4,1.7-2.6s1-2,1.1-2.5H1393.4z"/>
	<path id="XMLID_235_" class="st4" d="M1421.3,49.2H1410V48c0.3,0,0.8-0.1,1.4-0.1s1-0.1,1.3-0.2c0.4-0.2,0.7-0.4,0.8-0.6
		s0.3-0.6,0.3-1.1V27.9c0-0.4-0.1-0.8-0.2-1c-0.1-0.3-0.4-0.5-0.9-0.7c-0.4-0.1-0.8-0.3-1.3-0.4c-0.5-0.1-1-0.2-1.3-0.2v-1.2h11.2
		v1.2c-0.4,0-0.8,0.1-1.3,0.1c-0.5,0.1-0.9,0.2-1.3,0.3c-0.4,0.1-0.7,0.4-0.9,0.7c-0.2,0.3-0.2,0.7-0.2,1.1v18.1
		c0,0.4,0.1,0.7,0.3,1c0.2,0.3,0.5,0.5,0.9,0.7c0.2,0.1,0.6,0.2,1.2,0.3c0.6,0.1,1,0.2,1.4,0.2V49.2z"/>
	<path id="XMLID_237_" class="st4" d="M1452.9,25.5c-0.3,0-0.8,0.1-1.5,0.3s-1.2,0.4-1.5,0.5c-0.4,0.3-0.7,0.9-0.9,1.7
		s-0.2,1.9-0.2,3.2v18.3h-1.5l-15.1-20.4v12.9c0,1.4,0.1,2.5,0.3,3.3s0.5,1.3,0.8,1.7c0.3,0.3,0.8,0.5,1.7,0.7s1.4,0.3,1.7,0.4v1.2
		h-10.2V48c0.3,0,0.8-0.1,1.6-0.3s1.2-0.4,1.4-0.6c0.4-0.3,0.7-0.8,0.8-1.5s0.2-1.8,0.2-3.5V29.8c0-0.5-0.1-1.1-0.3-1.6
		s-0.4-1-0.8-1.2c-0.4-0.4-1-0.7-1.7-1s-1.3-0.4-1.7-0.4v-1.2h7.1l14,19V31.4c0-1.5-0.1-2.6-0.3-3.3s-0.5-1.3-0.8-1.6
		c-0.3-0.2-0.9-0.4-1.6-0.7s-1.3-0.3-1.7-0.4v-1.2h10.1V25.5z"/>
	<path id="XMLID_239_" class="st4" d="M1489.6,31h-1.2c-0.1-0.4-0.3-0.9-0.6-1.5s-0.6-1.1-0.9-1.6c-0.4-0.5-0.7-1-1.2-1.4
		s-0.8-0.6-1.2-0.7c-0.4,0-0.8-0.1-1.4-0.1s-1.1,0-1.5,0h-1v20c0,0.4,0.1,0.7,0.2,1.1s0.5,0.6,0.9,0.7c0.2,0.1,0.7,0.2,1.3,0.3
		s1.2,0.2,1.6,0.2v1.2h-11.8V48c0.3,0,0.8-0.1,1.5-0.1s1.1-0.2,1.4-0.3c0.4-0.2,0.7-0.4,0.9-0.7s0.3-0.7,0.3-1.2V25.6h-1
		c-0.4,0-0.8,0-1.4,0s-1.1,0.1-1.5,0.1c-0.4,0-0.8,0.3-1.2,0.7s-0.8,0.9-1.2,1.4s-0.7,1.1-0.9,1.7s-0.5,1.1-0.6,1.5h-1.2v-6.8h21.7
		V31z"/>
	<path id="XMLID_241_" class="st4" d="M1520.3,49.2H1510V48c0.3,0,0.7-0.1,1.2-0.1c0.5,0,0.9-0.1,1.1-0.2c0.4-0.1,0.6-0.4,0.8-0.6
		c0.2-0.3,0.2-0.7,0.2-1.1V37h-11.7v8.7c0,0.4,0.1,0.8,0.2,1c0.1,0.3,0.4,0.5,0.8,0.7c0.2,0.1,0.6,0.2,1.1,0.3s0.9,0.2,1.2,0.2v1.2
		h-10.4V48c0.3,0,0.7-0.1,1.2-0.1c0.5,0,0.9-0.1,1.1-0.2c0.4-0.1,0.6-0.4,0.8-0.6c0.2-0.3,0.2-0.7,0.2-1.1v-18c0-0.4-0.1-0.7-0.2-1
		c-0.2-0.3-0.4-0.6-0.8-0.7c-0.3-0.2-0.7-0.3-1.2-0.4c-0.5-0.1-0.8-0.2-1.2-0.2v-1.2h10.4v1.2c-0.3,0-0.7,0.1-1.2,0.2
		s-0.8,0.2-1.1,0.3c-0.4,0.1-0.7,0.4-0.8,0.7c-0.1,0.3-0.2,0.7-0.2,1.1v7.7h11.7v-7.6c0-0.4-0.1-0.7-0.2-1c-0.2-0.3-0.4-0.6-0.8-0.7
		c-0.3-0.2-0.7-0.3-1.2-0.4c-0.5-0.1-0.8-0.2-1.2-0.2v-1.2h10.4v1.2c-0.3,0-0.7,0.1-1.2,0.2s-0.8,0.2-1.1,0.3
		c-0.4,0.1-0.7,0.4-0.8,0.7c-0.1,0.3-0.2,0.7-0.2,1.1v18c0,0.4,0.1,0.8,0.2,1c0.1,0.3,0.4,0.5,0.8,0.7c0.2,0.1,0.6,0.2,1.1,0.3
		s0.9,0.2,1.2,0.2V49.2z"/>
	<path id="XMLID_243_" class="st4" d="M1547.7,41.9l-0.5,7.3h-20.7V48c0.4,0,0.8-0.1,1.4-0.1c0.6-0.1,1-0.2,1.1-0.2
		c0.4-0.2,0.6-0.4,0.8-0.7c0.1-0.3,0.2-0.6,0.2-1.1V27.9c0-0.4-0.1-0.7-0.2-1c-0.1-0.3-0.4-0.5-0.8-0.7c-0.3-0.2-0.7-0.3-1.3-0.4
		c-0.5-0.1-1-0.2-1.3-0.2v-1.2h19.3v6h-1.3c-0.2-0.9-0.7-1.8-1.5-2.8s-1.5-1.5-2.2-1.6c-0.4,0-0.8-0.1-1.3-0.1c-0.5,0-1.1,0-1.7,0
		h-3.9v9.9h2.8c0.9,0,1.6-0.1,2-0.3c0.4-0.2,0.8-0.5,1.1-0.9c0.3-0.3,0.5-0.8,0.7-1.4s0.3-1.1,0.4-1.6h1.3v9.8h-1.3
		c0-0.6-0.2-1.2-0.4-1.8c-0.2-0.6-0.4-1.1-0.6-1.4c-0.4-0.5-0.8-0.8-1.2-0.9c-0.5-0.1-1.1-0.2-1.8-0.2h-2.8v7.5
		c0,0.8,0.1,1.3,0.2,1.8s0.3,0.8,0.6,1c0.3,0.2,0.7,0.4,1.2,0.4s1.3,0.1,2.3,0.1c0.4,0,0.9,0,1.5,0s1.2,0,1.6-0.1
		c0.4,0,0.9-0.1,1.4-0.3s0.8-0.3,1-0.5c0.5-0.6,1.1-1.4,1.7-2.6s1-2,1.1-2.5H1547.7z"/>
	<path id="XMLID_245_" class="st4" d="M1580.2,37.8c0.5,0.6,0.9,1.2,1.2,1.9s0.4,1.5,0.4,2.4c0,2.2-0.8,4-2.4,5.4
		c-1.6,1.4-3.7,2.1-6.1,2.1c-1.1,0-2.2-0.2-3.3-0.5c-1.1-0.3-2.1-0.8-2.9-1.3l-0.8,1.3h-1.4l-0.2-8.5h1.4c0.3,1.1,0.6,2,1,2.9
		s0.9,1.6,1.6,2.4c0.6,0.7,1.3,1.2,2.1,1.7s1.8,0.6,2.8,0.6c0.8,0,1.5-0.1,2.1-0.3s1.1-0.5,1.5-0.9c0.4-0.4,0.7-0.8,0.8-1.4
		s0.3-1.1,0.3-1.8c0-1-0.3-1.9-0.8-2.8s-1.4-1.5-2.5-2c-0.8-0.3-1.6-0.6-2.6-1c-1-0.4-1.8-0.7-2.5-1c-1.4-0.6-2.5-1.5-3.3-2.5
		s-1.2-2.4-1.2-4c0-0.9,0.2-1.8,0.6-2.7s0.9-1.6,1.7-2.2c0.7-0.6,1.5-1.1,2.4-1.4c0.9-0.3,1.9-0.5,2.9-0.5c1.1,0,2.2,0.2,3.1,0.5
		s1.7,0.8,2.5,1.2l0.7-1.2h1.4l0.1,8.3h-1.4c-0.3-0.9-0.5-1.9-0.9-2.7s-0.7-1.7-1.3-2.4c-0.5-0.7-1.1-1.2-1.8-1.6
		c-0.7-0.4-1.6-0.6-2.7-0.6c-1.1,0-2.1,0.4-2.8,1.1c-0.8,0.7-1.2,1.6-1.2,2.6c0,1.1,0.3,2,0.8,2.7c0.5,0.7,1.2,1.3,2.2,1.7
		c0.9,0.4,1.7,0.8,2.5,1.1s1.6,0.6,2.4,1c0.7,0.3,1.4,0.7,2,1S1579.7,37.3,1580.2,37.8z"/>
	<path id="XMLID_247_" class="st4" d="M1612,49.2h-7c-1.3-2.1-2.8-4.2-4.5-6.2s-3.4-4.1-5.2-6h-0.5v8.7c0,0.4,0.1,0.7,0.2,1
		s0.4,0.6,0.8,0.7c0.2,0.1,0.5,0.2,1,0.3s0.9,0.2,1.3,0.2v1.2h-10.4V48c0.3,0,0.7-0.1,1.2-0.1s0.9-0.1,1.1-0.2
		c0.4-0.2,0.6-0.4,0.8-0.7s0.2-0.7,0.2-1.1v-18c0-0.4-0.1-0.7-0.2-1s-0.4-0.5-0.8-0.7c-0.3-0.2-0.7-0.3-1.1-0.4s-0.8-0.2-1.1-0.2
		v-1.2h10.4v1.2c-0.3,0-0.7,0.1-1.2,0.2s-0.9,0.2-1.1,0.3c-0.4,0.1-0.7,0.4-0.8,0.7s-0.2,0.7-0.2,1.1v8.6h0.4
		c1.1-0.9,2.1-1.8,3.1-2.8s1.9-1.9,2.8-2.9c0.9-1.1,1.6-1.9,2-2.6s0.6-1.2,0.6-1.7c0-0.2-0.1-0.3-0.3-0.4s-0.5-0.2-0.7-0.3
		c-0.3-0.1-0.6-0.1-0.9-0.1s-0.5,0-0.6,0v-1.2h9.4v1.2c0,0-0.1,0-0.2,0s-0.3,0-0.4,0c-0.2,0-0.3,0-0.5,0.1s-0.4,0.1-0.6,0.1
		c-0.4,0.1-0.8,0.2-1.3,0.4s-0.8,0.5-1.1,0.8c-1.2,1.4-2.5,2.8-3.8,4.3c-1.3,1.5-2.6,2.8-3.9,4c1.8,2,3.3,3.8,4.4,5.2s2.4,3,3.7,4.7
		c0.5,0.6,1,1.1,1.5,1.5s0.9,0.7,1.3,0.9c0.3,0.2,0.7,0.3,1.1,0.4s0.8,0.1,1.1,0.1V49.2z"/>
	<path id="XMLID_249_" class="st4" d="M1637,25.5c-0.2,0-0.5,0.1-0.9,0.2s-0.7,0.3-0.9,0.4c-0.5,0.3-0.8,0.5-0.9,0.7
		s-0.5,0.6-0.9,1.2c-0.9,1.3-1.8,2.6-2.5,3.9c-0.8,1.3-1.7,3-2.9,5c-0.4,0.8-0.7,1.4-0.9,1.8s-0.2,1.1-0.2,2v4.8
		c0,0.4,0.1,0.8,0.3,1.1s0.5,0.6,0.9,0.7c0.2,0.1,0.7,0.2,1.3,0.3s1.1,0.2,1.5,0.2v1.2H1619V48c0.3,0,0.8-0.1,1.5-0.1
		s1.1-0.1,1.4-0.3c0.4-0.2,0.7-0.4,0.9-0.7s0.2-0.7,0.2-1.1v-6.1c0-0.2-0.1-0.5-0.3-1s-0.5-1.1-0.8-1.7c-0.7-1.4-1.5-2.8-2.3-4.4
		c-0.9-1.6-1.6-2.9-2.2-4.1c-0.4-0.7-0.7-1.2-1-1.5s-0.6-0.6-1-0.9c-0.3-0.2-0.6-0.3-1-0.4s-0.7-0.2-1.1-0.2v-1.2h10.6v1.2
		c-1.2,0-2,0.1-2.5,0.2s-0.7,0.3-0.7,0.6c0,0.1,0,0.2,0.1,0.4s0.2,0.4,0.3,0.7c0.2,0.3,0.3,0.7,0.5,1s0.4,0.8,0.6,1.1
		c0.6,1,1.1,2.1,1.7,3.1c0.6,1,1.3,2.4,2.3,4.1c1.8-3,3.2-5.3,4.2-6.9s1.5-2.7,1.5-3c0-0.3-0.1-0.5-0.3-0.7s-0.5-0.3-0.8-0.4
		c-0.3-0.1-0.7-0.2-1.1-0.2s-0.8-0.1-1.1-0.1v-1.2h8.7V25.5z"/>
</g>
<linearGradient id="XMLID_180_" gradientUnits="userSpaceOnUse" x1="-14.3616" y1="-530.486" x2="-14.3616" y2="-328.486">
	<stop  offset="0" style="stop-color:#52BCEF"/>
	<stop  offset="1" style="stop-color:#002A83"/>
</linearGradient>
<circle id="XMLID_1_" class="st5" cx="-14.4" cy="-429.5" r="101"/>
<text id="XMLID_3_" transform="matrix(0.9983 0 0 1 -98.1274 -404.323)" class="st4 st2 st7">W</text>
<text id="XMLID_2_" transform="matrix(0.9983 0 0 1 11.0655 -404.323)" class="st4 st2 st7">W</text>
<g id="XMLID_5_">
	<path id="XMLID_6_" class="st4" d="M-14.1-455c-14.5,0-26.3,11.8-26.3,26.3c0,2.6,0.4,5.1,1.1,7.4c6.2,2.6,15.3-2.3,15.3-2.3
		l0.4-0.1c0-0.1,0.1-0.2,0.1-0.3l-0.3-0.3c0,0-0.1-0.1-0.1-0.1l-3.6-2.1c-0.2-0.1-0.4-0.4-0.3-0.6c0-0.2,0.1-0.3,0.2-0.5l0.6-0.5
		c0.2-0.2,0.4-0.2,0.7-0.2c0,0,0.1,0,0.1,0l5.3,1c0.1-0.1,0.3-0.3,0.4-0.4c1.4-1.5,3.2-3.3,5.3-5L-17-435c0,0-0.1-0.1-0.2-0.1
		l-6.6-4.5c-0.2-0.1-0.3-0.4-0.3-0.6c0-0.2,0.1-0.3,0.2-0.5l1.3-1.1c0.2-0.1,0.4-0.2,0.6-0.2c0.1,0,0.2,0,0.2,0.1l3.2,1.3l0.9-0.7
		c0.1-0.1,0.3-0.2,0.5-0.2c0.2,0,0.4,0.1,0.5,0.3l0.5,0.6c0.1,0.1,0.2,0.3,0.2,0.5c0,0.2-0.1,0.3-0.2,0.4l0.5,0.2l1-0.8
		c0.1-0.1,0.3-0.2,0.5-0.2c0.2,0,0.4,0.1,0.5,0.3l0.5,0.6c0.1,0.1,0.2,0.3,0.2,0.5c0,0.2-0.1,0.4-0.3,0.5l0,0l3.1,1.3
		c0.3-0.3,0.7-0.6,1-0.9c1.8-1.6,3.1-2.8,4.4-3.6c1.6-1,3.2-1.5,4.3-1.4c0.4,0,0.6,0.1,0.8,0.3c0,0,0.1,0.1,0.1,0.1
		c0.1,0.1,0.1,0.1,0.1,0.2c0.1,0.2,0.2,0.5,0.1,0.9c-0.1,1.1-0.9,2.6-2.2,4c-1,1.1-2.4,2.2-4.3,3.7c-0.3,0.3-0.7,0.5-1,0.8l0.7,3.3
		l0,0c0.1-0.1,0.3-0.2,0.5-0.2c0.2,0,0.4,0.1,0.5,0.3l0.5,0.6c0.1,0.1,0.2,0.3,0.2,0.5c0,0.2-0.1,0.4-0.3,0.5l-1,0.8l0.1,0.5
		c0.1-0.1,0.3-0.1,0.5-0.1c0.2,0,0.4,0.1,0.5,0.3l0.5,0.6c0.1,0.1,0.2,0.3,0.2,0.5c0,0.2-0.1,0.4-0.3,0.5l-0.9,0.7l0.7,3.4
		c0,0.1,0,0.2,0,0.2c0,0.2-0.1,0.4-0.3,0.6l-1.3,1.1c-0.1,0.1-0.3,0.2-0.5,0.2c-0.3,0-0.5-0.2-0.6-0.4l-3.2-7.2c0,0-0.1-0.1-0.1-0.2
		l-1.8-2.2c-2.1,1.7-4.1,3.1-5.9,4.3c-0.2,0.1-0.3,0.2-0.5,0.3l0,5.4c0,0,0,0,0,0.1c0,0.3-0.1,0.5-0.3,0.6l-0.6,0.5
		c-0.1,0.1-0.3,0.1-0.5,0.1h0c-0.3,0-0.5-0.2-0.6-0.4l-1.4-3.9c0,0-0.1-0.1-0.1-0.2l-0.2-0.2c-0.6,0.7-7.6,9.4-5,16
		c0.1,0.2,0.1,0.3,0.1,0.4c2.1,1.2,4.4,2.1,6.8,2.6v9.7L-2.8-405c8.9-4.2,15-13.3,15-23.7C12.2-443.2,0.4-455-14.1-455z"/>
</g>
<g id="XMLID_8_">
	<path id="XMLID_9_" class="st4" d="M654.4-373c3.3-0.5,6-1.6,7.4-3c0.4-0.4,0.7-0.9,0.8-1.3c0,0,0-0.2,0-0.4c0-0.2,0-0.3,0-0.3
		c-0.1-0.5-0.4-0.9-0.8-1.3c-1.4-1.4-4.2-2.5-7.4-2.9c-2.6-0.4-5.7-0.3-10-0.2c-0.7,0-1.5,0-2.3,0.1l-2.8-5.3l0,0
		c0.3,0,0.7-0.1,0.9-0.4c0.2-0.2,0.4-0.6,0.4-0.9l0-1.5c0-0.3-0.1-0.7-0.4-0.9c-0.2-0.2-0.6-0.4-0.9-0.4l-2.2,0l-0.4-0.8
		c0.3,0,0.5-0.2,0.7-0.4c0.2-0.2,0.4-0.6,0.4-0.9v-1.5c0-0.3-0.1-0.7-0.4-0.9c-0.2-0.2-0.6-0.4-0.9-0.4l-2,0l-2.9-5.3
		c-0.1-0.1-0.1-0.2-0.3-0.3c-0.3-0.3-0.7-0.5-1.1-0.5l-2.9,0c-0.3,0-0.6,0.1-0.9,0.3c-0.3,0.3-0.4,0.8-0.3,1.2l3.8,13.5
		c0,0.1,0.1,0.3,0.1,0.4l0,4.9c-4.7,0.1-9.1,0.4-12.8,0.9c-0.3,0-0.7,0.1-1,0.1l-6.1-7.3c0,0-0.1-0.1-0.1-0.1
		c-0.3-0.3-0.7-0.5-1.2-0.5l-1.3,0c-0.3,0-0.6,0.1-0.9,0.3c-0.3,0.3-0.4,0.8-0.3,1.2l2.5,6.9c0,0.1,0.1,0.2,0.1,0.3l0,0.8
		c-0.5,0.2-0.8,0.5-1.1,0.7c-0.4,0.3-0.5,0.8-0.5,1.2l0,0l0,0c0,0.4,0.2,0.8,0.5,1.2c0.3,0.3,0.6,0.5,1.1,0.7l0,0.8
		c0,0.1,0,0.2-0.1,0.3l-2.5,6.9c-0.2,0.4-0.1,0.9,0.3,1.2l0,0c0.2,0.2,0.5,0.3,0.8,0.3l1.4,0c0.4,0,0.8-0.2,1.2-0.5
		c0,0,0.1-0.1,0.1-0.1l6.1-7.3c0.3,0,0.6,0.1,1,0.1c3.7,0.4,8.1,0.7,12.8,0.9l0,4.9c0,0.1,0,0.3-0.1,0.4l-3.8,13.4
		c-0.1,0.4,0,0.9,0.3,1.2c0.2,0.2,0.5,0.3,0.9,0.3l2.9,0c0.4,0,0.8-0.2,1.1-0.5c0.1-0.1,0.2-0.2,0.2-0.3l2.9-5.3l2,0
		c0.3,0,0.7-0.1,0.9-0.4c0.2-0.2,0.4-0.6,0.4-0.9l0-1.5c0-0.3-0.1-0.7-0.4-0.9c-0.2-0.2-0.5-0.3-0.7-0.4l0.4-0.7h2.2
		c0.3,0,0.7-0.1,0.9-0.4c0.2-0.2,0.4-0.6,0.4-0.9v-1.5c0-0.3-0.1-0.7-0.4-0.9c-0.2-0.2-0.6-0.4-0.9-0.4l0,0l2.8-5.3
		c0.8,0,1.6,0,2.3,0.1C648.7-372.7,651.8-372.7,654.4-373z"/>
</g>
<linearGradient id="XMLID_181_" gradientUnits="userSpaceOnUse" x1="113.6384" y1="12.514" x2="113.6384" y2="214.514">
	<stop  offset="0" style="stop-color:#715913"/>
	<stop  offset="2.117428e-002" style="stop-color:#7B6319"/>
	<stop  offset="0.1229" style="stop-color:#A98D32"/>
	<stop  offset="0.2133" style="stop-color:#CAAC45"/>
	<stop  offset="0.2884" style="stop-color:#DFBE50"/>
	<stop  offset="0.3387" style="stop-color:#E6C554"/>
	<stop  offset="0.4196" style="stop-color:#D6B74B"/>
	<stop  offset="0.8161" style="stop-color:#8E7323"/>
	<stop  offset="1" style="stop-color:#715913"/>
</linearGradient>
<circle id="XMLID_16_" class="st6" cx="113.6" cy="113.5" r="101"/>
<text id="XMLID_15_" transform="matrix(0.9983 0 0 1 29.8726 138.677)" class="st4 st2 st7">W</text>
<text id="XMLID_14_" transform="matrix(0.9983 0 0 1 139.0655 138.677)" class="st4 st2 st7">W</text>
<g id="XMLID_12_">
	<path id="XMLID_13_" class="st4" d="M113.9,88c-14.5,0-26.3,11.8-26.3,26.3c0,2.6,0.4,5.1,1.1,7.4c6.2,2.6,15.3-2.3,15.3-2.3
		l0.4-0.1c0-0.1,0.1-0.2,0.1-0.3l-0.3-0.3c0,0-0.1-0.1-0.1-0.1l-3.6-2.1c-0.2-0.1-0.4-0.4-0.3-0.6c0-0.2,0.1-0.3,0.2-0.5l0.6-0.5
		c0.2-0.2,0.4-0.2,0.7-0.2c0,0,0.1,0,0.1,0l5.3,1c0.1-0.1,0.3-0.3,0.4-0.4c1.4-1.5,3.2-3.3,5.3-5L111,108c0,0-0.1-0.1-0.2-0.1
		l-6.6-4.5c-0.2-0.1-0.3-0.4-0.3-0.6c0-0.2,0.1-0.3,0.2-0.5l1.3-1.1c0.2-0.1,0.4-0.2,0.6-0.2c0.1,0,0.2,0,0.2,0.1l3.2,1.3l0.9-0.7
		c0.1-0.1,0.3-0.2,0.5-0.2c0.2,0,0.4,0.1,0.5,0.3l0.5,0.6c0.1,0.1,0.2,0.3,0.2,0.5c0,0.2-0.1,0.3-0.2,0.4l0.5,0.2l1-0.8
		c0.1-0.1,0.3-0.2,0.5-0.2c0.2,0,0.4,0.1,0.5,0.3l0.5,0.6c0.1,0.1,0.2,0.3,0.2,0.5c0,0.2-0.1,0.4-0.3,0.5l0,0l3.1,1.3
		c0.3-0.3,0.7-0.6,1-0.9c1.8-1.6,3.1-2.8,4.4-3.6c1.6-1,3.2-1.5,4.3-1.4c0.4,0,0.6,0.1,0.8,0.3c0,0,0.1,0.1,0.1,0.1
		c0.1,0.1,0.1,0.1,0.1,0.2c0.1,0.2,0.2,0.5,0.1,0.9c-0.1,1.1-0.9,2.6-2.2,4c-1,1.1-2.4,2.2-4.3,3.7c-0.3,0.3-0.7,0.5-1,0.8l0.7,3.3
		l0,0c0.1-0.1,0.3-0.2,0.5-0.2c0.2,0,0.4,0.1,0.5,0.3l0.5,0.6c0.1,0.1,0.2,0.3,0.2,0.5c0,0.2-0.1,0.4-0.3,0.5l-1,0.8l0.1,0.5
		c0.1-0.1,0.3-0.1,0.5-0.1c0.2,0,0.4,0.1,0.5,0.3l0.5,0.6c0.1,0.1,0.2,0.3,0.2,0.5c0,0.2-0.1,0.4-0.3,0.5l-0.9,0.7l0.7,3.4
		c0,0.1,0,0.2,0,0.2c0,0.2-0.1,0.4-0.3,0.6l-1.3,1.1c-0.1,0.1-0.3,0.2-0.5,0.2c-0.3,0-0.5-0.2-0.6-0.4l-3.2-7.2c0,0-0.1-0.1-0.1-0.2
		l-1.8-2.2c-2.1,1.7-4.1,3.1-5.9,4.3c-0.2,0.1-0.3,0.2-0.5,0.3l0,5.4c0,0,0,0,0,0.1c0,0.3-0.1,0.5-0.3,0.6l-0.6,0.5
		c-0.1,0.1-0.3,0.1-0.5,0.1h0c-0.3,0-0.5-0.2-0.6-0.4l-1.4-3.9c0,0-0.1-0.1-0.1-0.2l-0.2-0.2c-0.6,0.7-7.6,9.4-5,16
		c0.1,0.2,0.1,0.3,0.1,0.4c2.1,1.2,4.4,2.1,6.8,2.6v9.7l17.1-11.5c8.9-4.2,15-13.3,15-23.7C140.2,99.8,128.4,88,113.9,88z"/>
</g>
<g id="XMLID_10_">
	<g id="XMLID_198_">
		<path id="XMLID_199_" class="st1" d="M784.4,170c3.3-0.5,6-1.6,7.4-3c0.4-0.4,0.7-0.9,0.8-1.3c0,0,0-0.2,0-0.4c0-0.2,0-0.3,0-0.3
			c-0.1-0.5-0.4-0.9-0.8-1.3c-1.4-1.4-4.2-2.5-7.4-2.9c-2.6-0.4-5.7-0.3-10-0.2c-0.7,0-1.5,0-2.3,0.1l-2.8-5.3l0,0
			c0.3,0,0.7-0.1,0.9-0.4c0.2-0.2,0.4-0.6,0.4-0.9l0-1.5c0-0.3-0.1-0.7-0.4-0.9c-0.2-0.2-0.6-0.4-0.9-0.4l-2.2,0l-0.4-0.8
			c0.3,0,0.5-0.2,0.7-0.4c0.2-0.2,0.4-0.6,0.4-0.9v-1.5c0-0.3-0.1-0.7-0.4-0.9c-0.2-0.2-0.6-0.4-0.9-0.4l-2,0l-2.9-5.3
			c-0.1-0.1-0.1-0.2-0.3-0.3c-0.3-0.3-0.7-0.5-1.1-0.5l-2.9,0c-0.3,0-0.6,0.1-0.9,0.3c-0.3,0.3-0.4,0.8-0.3,1.2l3.8,13.5
			c0,0.1,0.1,0.3,0.1,0.4l0,4.9c-4.7,0.1-9.1,0.4-12.8,0.9c-0.3,0-0.7,0.1-1,0.1l-6.1-7.3c0,0-0.1-0.1-0.1-0.1
			c-0.3-0.3-0.7-0.5-1.2-0.5l-1.3,0c-0.3,0-0.6,0.1-0.9,0.3c-0.3,0.3-0.4,0.8-0.3,1.2l2.5,6.9c0,0.1,0.1,0.2,0.1,0.3l0,0.8
			c-0.5,0.2-0.8,0.5-1.1,0.7c-0.4,0.3-0.5,0.8-0.5,1.2l0,0l0,0c0,0.4,0.2,0.8,0.5,1.2c0.3,0.3,0.6,0.5,1.1,0.7l0,0.8
			c0,0.1,0,0.2-0.1,0.3l-2.5,6.9c-0.2,0.4-0.1,0.9,0.3,1.2l0,0c0.2,0.2,0.5,0.3,0.8,0.3l1.4,0c0.4,0,0.8-0.2,1.2-0.5
			c0,0,0.1-0.1,0.1-0.1l6.1-7.3c0.3,0,0.6,0.1,1,0.1c3.7,0.4,8.1,0.7,12.8,0.9l0,4.9c0,0.1,0,0.3-0.1,0.4l-3.8,13.4
			c-0.1,0.4,0,0.9,0.3,1.2c0.2,0.2,0.5,0.3,0.9,0.3l2.9,0c0.4,0,0.8-0.2,1.1-0.5c0.1-0.1,0.2-0.2,0.2-0.3l2.9-5.3l2,0
			c0.3,0,0.7-0.1,0.9-0.4c0.2-0.2,0.4-0.6,0.4-0.9l0-1.5c0-0.3-0.1-0.7-0.4-0.9c-0.2-0.2-0.5-0.3-0.7-0.4l0.4-0.7h2.2
			c0.3,0,0.7-0.1,0.9-0.4c0.2-0.2,0.4-0.6,0.4-0.9v-1.5c0-0.3-0.1-0.7-0.4-0.9c-0.2-0.2-0.6-0.4-0.9-0.4l0,0l2.8-5.3
			c0.8,0,1.6,0,2.3,0.1C778.7,170.3,781.8,170.3,784.4,170z"/>
	</g>
</g>
<linearGradient id="XMLID_182_" gradientUnits="userSpaceOnUse" x1="72.3605" y1="-377.6525" x2="615.6938" y2="-377.6525">
	<stop  offset="0" style="stop-color:#FFFFFF;stop-opacity:0"/>
	<stop  offset="0.4086" style="stop-color:#FFFFFF"/>
	<stop  offset="1" style="stop-color:#FFFFFF"/>
</linearGradient>
<rect id="XMLID_210_" x="72.4" y="-379.7" class="st8" width="543.3" height="4"/>
<g id="XMLID_72_">
	<path id="XMLID_74_" class="st1" d="M237.6,195.4l-4.1-7.8l-1.1-0.1v-2h5.9v1.9l-0.7,0.1c-0.5,0-0.7,0.4-0.4,0.9l2,4.2h0.1l2.6-5
		l-1.2-0.1v-2h5.2v1.9l-0.7,0.1c-0.4,0-0.6,0.3-0.8,0.7l-3.8,7.1v4l1.9,0.1v2h-6.8v-1.9l1.3-0.1c0.5,0,0.7-0.2,0.7-0.7V195.4z"/>
	<path id="XMLID_76_" class="st1" d="M264.5,201.8c-4.3,0-7-2.8-7-8.3c0-6.1,3.9-8.3,7.2-8.3c3.6,0,6.8,2.2,6.8,8.3
		C271.5,199.1,268.7,201.8,264.5,201.8z M264.6,199.4c3,0,3.9-2.9,3.9-5.8c0-2.4-0.6-5.9-4-5.9c-3.1,0-4.1,2.9-4.1,5.7
		C260.5,196.2,261.2,199.4,264.6,199.4z"/>
	<path id="XMLID_79_" class="st1" d="M288.6,196.3c0,2.4,1.2,3,3.1,3c1.9,0,3.1-1,3.1-2.9v-8.8l-1.4-0.1v-2h5.7v1.9l-0.8,0.1
		c-0.4,0-0.7,0.2-0.7,0.7v8.6c0,3.1-2.4,5-6,5c-3.9,0-6-1.6-6-5.4v-8.8l-1.4-0.1v-2h5.8v1.9l-0.8,0.1c-0.5,0-0.7,0.2-0.7,0.8V196.3z
		"/>
	<path id="XMLID_81_" class="st1" d="M311.9,199.6l0.8-0.1c0.4,0,0.7-0.2,0.7-0.7v-11.2l-1.4-0.1v-2h6.6c3.5,0,5.8,1.2,5.8,4.4
		c0,2.4-1.6,3.7-2.9,4.2c0.6,0.2,1,0.6,1.4,1.5l1.7,3.8l1.4,0v2H320v-1.9l0.7-0.1c0.6-0.1,0.7-0.3,0.5-0.8l-1.1-2.4
		c-0.3-0.7-0.7-1.1-1.5-1.1h-2.2v4.2l1.6,0.1v2h-6V199.6z M318.4,193c2,0,3-0.9,3-2.6c0-2.2-1.2-2.4-3.3-2.4h-1.8v5.1H318.4z"/>
	<path id="XMLID_84_" class="st1" d="M362,198.1h0.1l3.4-10.4l-1.5-0.1v-2h5.5v1.9l-0.8,0.1c-0.4,0-0.6,0.2-0.7,0.7l-4.5,13.2h-3.1
		l-4.9-13.8l-1.4-0.1v-2h6.2v1.9l-0.8,0.1c-0.5,0-0.9,0.3-0.7,0.8L362,198.1z"/>
	<path id="XMLID_86_" class="st1" d="M388.3,201.8c-4.3,0-7-2.8-7-8.3c0-6.1,3.9-8.3,7.2-8.3c3.6,0,6.8,2.2,6.8,8.3
		C395.3,199.1,392.5,201.8,388.3,201.8z M388.4,199.4c3,0,3.9-2.9,3.9-5.8c0-2.4-0.6-5.9-4-5.9c-3.1,0-4.1,2.9-4.1,5.7
		C384.3,196.2,385,199.4,388.4,199.4z"/>
	<path id="XMLID_89_" class="st1" d="M410.1,187.7l-1.4-0.1v-2h5.8v1.9l-0.8,0.1c-0.4,0-0.7,0.2-0.7,0.8v11.1l1.4,0.1v2h-5.8v-1.9
		l0.8-0.1c0.5,0,0.7-0.2,0.7-0.8V187.7z"/>
	<path id="XMLID_91_" class="st1" d="M435.2,187.6c-3,0-4.5,2.2-4.5,5.8c0,3.8,1.2,6.1,4.6,6c0.7,0,1.3-0.1,1.8-0.2
		c0.4-0.1,0.5-0.3,0.5-0.8v-1.9l2.4,0.2v4.2c-1.3,0.7-3.2,1-4.8,1c-4.9,0-7.5-2.7-7.5-8.2c0-6.3,3.8-8.4,7.5-8.4
		c1.4,0,3.1,0.3,4.5,1v4.1l-2.4,0.2v-1.9c0-0.5-0.1-0.6-0.5-0.8C436.3,187.7,435.7,187.6,435.2,187.6z"/>
	<path id="XMLID_93_" class="st1" d="M453.5,201.5v-1.9l0.8-0.1c0.4,0,0.7-0.2,0.7-0.7v-11.2l-1.4-0.1v-2h11v4l-2.4,0.2v-1
		c0-0.5,0-0.7-0.7-0.7h-3.6v4.1h5.5v2.4h-5.5v4.5h3.9c0.6,0,0.7-0.3,0.7-0.8v-1.2l2.4,0.2v4.3H453.5z"/>
	<path id="XMLID_95_" class="st1" d="M495.9,187.7l-1.4-0.1v-2h5.8v1.9l-0.8,0.1c-0.4,0-0.7,0.2-0.7,0.8v11.1l1.4,0.1v2h-5.8v-1.9
		l0.8-0.1c0.5,0,0.7-0.2,0.7-0.8V187.7z"/>
	<path id="XMLID_97_" class="st1" d="M513.3,199.6l0.9-0.1c0.4,0,0.6-0.2,0.6-0.7v-11.2l-1.4-0.1v-2h4.3l6.8,11h0v-8.9l-1.6-0.1v-2
		h5.9v1.9l-0.9,0.1c-0.4,0-0.6,0.2-0.6,0.7v13.2h-2.8l-6.9-11.2h0v9.1l1.6,0.1v2h-5.9V199.6z"/>
	<path id="XMLID_99_" class="st1" d="M562.6,187.9h-1.9c-0.5,0-0.6,0.3-0.6,0.7v1.1l-2.4-0.2v-4.1h12.6v4.1l-2.4,0.2v-1.1
		c0-0.5,0-0.7-0.7-0.7h-1.6v11.5l1.9,0.1v2h-6.8v-1.9l1.3-0.1c0.5,0,0.7-0.2,0.7-0.7V187.9z"/>
	<path id="XMLID_101_" class="st1" d="M594.1,194.6h-6.8v4.8l1.4,0.1v2h-5.8v-1.9l0.8-0.1c0.4,0,0.7-0.2,0.7-0.7v-11.2l-1.4-0.1v-2
		h5.8v1.9l-0.8,0.1c-0.5,0-0.7,0.2-0.7,0.8v3.7h6.8v-4.4l-1.4-0.1v-2h5.8v1.9l-0.8,0.1c-0.4,0-0.7,0.2-0.7,0.8v11.1l1.4,0.1v2h-5.8
		v-1.9l0.8-0.1c0.5,0,0.7-0.2,0.7-0.8V194.6z"/>
	<path id="XMLID_103_" class="st1" d="M611.5,201.5v-1.9l0.8-0.1c0.4,0,0.7-0.2,0.7-0.7v-11.2l-1.4-0.1v-2h11v4l-2.4,0.2v-1
		c0-0.5,0-0.7-0.7-0.7H616v4.1h5.5v2.4H616v4.5h3.9c0.6,0,0.7-0.3,0.7-0.8v-1.2l2.4,0.2v4.3H611.5z"/>
	<path id="XMLID_105_" class="st1" d="M660.4,197.1c0-1.5-1.4-1.9-3-2.4c-2.4-0.6-4.6-1.6-4.6-4.7c0-2.9,2.3-4.7,5.6-4.7
		c1.6,0,3.1,0.3,4.5,1v3.6l-2.4,0.2v-1.4c0-0.5-0.1-0.6-0.5-0.8c-0.5-0.1-1.1-0.2-1.6-0.2c-1.4,0-2.5,0.6-2.5,2.1s1.4,1.9,3.2,2.4
		c2.2,0.7,4.5,1.7,4.5,4.8c0,3.2-2.5,4.9-5.8,4.9c-1.9,0-3.4-0.3-4.8-1v-3.8l2.4-0.2v1.5c0,0.5,0.1,0.6,0.5,0.8
		c0.5,0.1,1.1,0.2,1.7,0.2C659.1,199.4,660.4,198.9,660.4,197.1z"/>
	<path id="XMLID_107_" class="st1" d="M678,187.7l-1.4-0.1v-2h5.8v1.9l-0.8,0.1c-0.4,0-0.7,0.2-0.7,0.8v5.3l4.9-6l-1.3-0.1v-2h5.6
		v1.9l-0.8,0.1c-0.4,0-0.6,0.3-1,0.7l-3.4,4.2l4.2,7l1.3,0.1v2h-6.1v-1.9l0.7-0.1c0.5,0,0.6-0.3,0.4-0.8l-2.4-4.1l-2.1,2.5v2.2
		l1.4,0.1v2h-5.8v-1.9l0.8-0.1c0.5,0,0.7-0.2,0.7-0.8V187.7z"/>
	<path id="XMLID_109_" class="st1" d="M707.6,195.4l-4.1-7.8l-1.1-0.1v-2h5.9v1.9l-0.7,0.1c-0.5,0-0.7,0.4-0.4,0.9l2,4.2h0.1l2.6-5
		l-1.2-0.1v-2h5.2v1.9l-0.7,0.1c-0.4,0-0.6,0.3-0.8,0.7l-3.8,7.1v4l1.9,0.1v2h-6.8v-1.9l1.3-0.1c0.5,0,0.7-0.2,0.7-0.7V195.4z"/>
</g>
<text id="XMLID_73_" transform="matrix(1 0 0 1 106.5276 -346.4617)" class="st4" style="font-family:'BreeSerif-Regular'; font-size:24px; letter-spacing:11;">YOUR VOICE IN THE SKY</text>
<rect id="XMLID_212_" x="200.4" y="162.9" class="st1" width="543.3" height="4"/>
<text id="XMLID_179_" transform="matrix(1 0 0 1 1080.5271 -350.486)" class="st4 st2 st3">Airline Reviews</text>
<linearGradient id="XMLID_183_" gradientUnits="userSpaceOnUse" x1="959.6384" y1="-476.486" x2="959.6384" y2="-274.486">
	<stop  offset="0" style="stop-color:#715913"/>
	<stop  offset="2.117428e-002" style="stop-color:#7B6319"/>
	<stop  offset="0.1229" style="stop-color:#A98D32"/>
	<stop  offset="0.2133" style="stop-color:#CAAC45"/>
	<stop  offset="0.2884" style="stop-color:#DFBE50"/>
	<stop  offset="0.3387" style="stop-color:#E6C554"/>
	<stop  offset="0.4196" style="stop-color:#D6B74B"/>
	<stop  offset="0.8161" style="stop-color:#8E7323"/>
	<stop  offset="1" style="stop-color:#715913"/>
</linearGradient>
<circle id="XMLID_178_" class="st9" cx="959.6" cy="-375.5" r="101"/>
<text id="XMLID_177_" transform="matrix(0.9983 0 0 1 875.8726 -350.323)" class="st4 st2 st7">W</text>
<text id="XMLID_176_" transform="matrix(0.9983 0 0 1 985.0655 -350.323)" class="st4 st2 st7">W</text>
<g id="XMLID_174_">
	<path id="XMLID_175_" class="st4" d="M959.9-401c-14.5,0-26.3,11.8-26.3,26.3c0,2.6,0.4,5.1,1.1,7.4c6.2,2.6,15.3-2.3,15.3-2.3
		l0.4-0.1c0-0.1,0.1-0.2,0.1-0.3l-0.3-0.3c0,0-0.1-0.1-0.1-0.1l-3.6-2.1c-0.2-0.1-0.4-0.4-0.3-0.6c0-0.2,0.1-0.3,0.2-0.5l0.6-0.5
		c0.2-0.2,0.4-0.2,0.7-0.2c0,0,0.1,0,0.1,0l5.3,1c0.1-0.1,0.3-0.3,0.4-0.4c1.4-1.5,3.2-3.3,5.3-5L957-381c0,0-0.1-0.1-0.2-0.1
		l-6.6-4.5c-0.2-0.1-0.3-0.4-0.3-0.6c0-0.2,0.1-0.3,0.2-0.5l1.3-1.1c0.2-0.1,0.4-0.2,0.6-0.2c0.1,0,0.2,0,0.2,0.1l3.2,1.3l0.9-0.7
		c0.1-0.1,0.3-0.2,0.5-0.2c0.2,0,0.4,0.1,0.5,0.3l0.5,0.6c0.1,0.1,0.2,0.3,0.2,0.5c0,0.2-0.1,0.3-0.2,0.4l0.5,0.2l1-0.8
		c0.1-0.1,0.3-0.2,0.5-0.2c0.2,0,0.4,0.1,0.5,0.3l0.5,0.6c0.1,0.1,0.2,0.3,0.2,0.5c0,0.2-0.1,0.4-0.3,0.5l0,0l3.1,1.3
		c0.3-0.3,0.7-0.6,1-0.9c1.8-1.6,3.1-2.8,4.4-3.6c1.6-1,3.2-1.5,4.3-1.4c0.4,0,0.6,0.1,0.8,0.3c0,0,0.1,0.1,0.1,0.1
		c0.1,0.1,0.1,0.1,0.1,0.2c0.1,0.2,0.2,0.5,0.1,0.9c-0.1,1.1-0.9,2.6-2.2,4c-1,1.1-2.4,2.2-4.3,3.7c-0.3,0.3-0.7,0.5-1,0.8l0.7,3.3
		l0,0c0.1-0.1,0.3-0.2,0.5-0.2c0.2,0,0.4,0.1,0.5,0.3l0.5,0.6c0.1,0.1,0.2,0.3,0.2,0.5c0,0.2-0.1,0.4-0.3,0.5l-1,0.8l0.1,0.5
		c0.1-0.1,0.3-0.1,0.5-0.1c0.2,0,0.4,0.1,0.5,0.3l0.5,0.6c0.1,0.1,0.2,0.3,0.2,0.5c0,0.2-0.1,0.4-0.3,0.5l-0.9,0.7l0.7,3.4
		c0,0.1,0,0.2,0,0.2c0,0.2-0.1,0.4-0.3,0.6l-1.3,1.1c-0.1,0.1-0.3,0.2-0.5,0.2c-0.3,0-0.5-0.2-0.6-0.4l-3.2-7.2c0,0-0.1-0.1-0.1-0.2
		l-1.8-2.2c-2.1,1.7-4.1,3.1-5.9,4.3c-0.2,0.1-0.3,0.2-0.5,0.3l0,5.4c0,0,0,0,0,0.1c0,0.3-0.1,0.5-0.3,0.6l-0.6,0.5
		c-0.1,0.1-0.3,0.1-0.5,0.1h0c-0.3,0-0.5-0.2-0.6-0.4l-1.4-3.9c0,0-0.1-0.1-0.1-0.2l-0.2-0.2c-0.6,0.7-7.6,9.4-5,16
		c0.1,0.2,0.1,0.3,0.1,0.4c2.1,1.2,4.4,2.1,6.8,2.6v9.7l17.1-11.5c8.9-4.2,15-13.3,15-23.7C986.2-389.2,974.4-401,959.9-401z"/>
</g>
<g id="XMLID_172_">
	<path id="XMLID_173_" class="st4" d="M1630.4-319c3.3-0.5,6-1.6,7.4-3c0.4-0.4,0.7-0.9,0.8-1.3c0,0,0-0.2,0-0.4c0-0.2,0-0.3,0-0.3
		c-0.1-0.5-0.4-0.9-0.8-1.3c-1.4-1.4-4.2-2.5-7.4-2.9c-2.6-0.4-5.7-0.3-10-0.2c-0.7,0-1.5,0-2.3,0.1l-2.8-5.3l0,0
		c0.3,0,0.7-0.1,0.9-0.4c0.2-0.2,0.4-0.6,0.4-0.9l0-1.5c0-0.3-0.1-0.7-0.4-0.9c-0.2-0.2-0.6-0.4-0.9-0.4l-2.2,0l-0.4-0.8
		c0.3,0,0.5-0.2,0.7-0.4c0.2-0.2,0.4-0.6,0.4-0.9v-1.5c0-0.3-0.1-0.7-0.4-0.9c-0.2-0.2-0.6-0.4-0.9-0.4l-2,0l-2.9-5.3
		c-0.1-0.1-0.1-0.2-0.3-0.3c-0.3-0.3-0.7-0.5-1.1-0.5l-2.9,0c-0.3,0-0.6,0.1-0.9,0.3c-0.3,0.3-0.4,0.8-0.3,1.2l3.8,13.5
		c0,0.1,0.1,0.3,0.1,0.4l0,4.9c-4.7,0.1-9.1,0.4-12.8,0.9c-0.3,0-0.7,0.1-1,0.1l-6.1-7.3c0,0-0.1-0.1-0.1-0.1
		c-0.3-0.3-0.7-0.5-1.2-0.5l-1.3,0c-0.3,0-0.6,0.1-0.9,0.3c-0.3,0.3-0.4,0.8-0.3,1.2l2.5,6.9c0,0.1,0.1,0.2,0.1,0.3l0,0.8
		c-0.5,0.2-0.8,0.5-1.1,0.7c-0.4,0.3-0.5,0.8-0.5,1.2l0,0l0,0c0,0.4,0.2,0.8,0.5,1.2c0.3,0.3,0.6,0.5,1.1,0.7l0,0.8
		c0,0.1,0,0.2-0.1,0.3l-2.5,6.9c-0.2,0.4-0.1,0.9,0.3,1.2l0,0c0.2,0.2,0.5,0.3,0.8,0.3l1.4,0c0.4,0,0.8-0.2,1.2-0.5
		c0,0,0.1-0.1,0.1-0.1l6.1-7.3c0.3,0,0.6,0.1,1,0.1c3.7,0.4,8.1,0.7,12.8,0.9l0,4.9c0,0.1,0,0.3-0.1,0.4l-3.8,13.4
		c-0.1,0.4,0,0.9,0.3,1.2c0.2,0.2,0.5,0.3,0.9,0.3l2.9,0c0.4,0,0.8-0.2,1.1-0.5c0.1-0.1,0.2-0.2,0.2-0.3l2.9-5.3l2,0
		c0.3,0,0.7-0.1,0.9-0.4c0.2-0.2,0.4-0.6,0.4-0.9l0-1.5c0-0.3-0.1-0.7-0.4-0.9c-0.2-0.2-0.5-0.3-0.7-0.4l0.4-0.7h2.2
		c0.3,0,0.7-0.1,0.9-0.4c0.2-0.2,0.4-0.6,0.4-0.9v-1.5c0-0.3-0.1-0.7-0.4-0.9c-0.2-0.2-0.6-0.4-0.9-0.4l0,0l2.8-5.3
		c0.8,0,1.6,0,2.3,0.1C1624.7-318.7,1627.8-318.7,1630.4-319z"/>
</g>
<g id="XMLID_113_">
	<path id="XMLID_170_" class="st4" d="M1083.6-293.6l-4.1-7.8l-1.1-0.1v-2h5.9v1.9l-0.7,0.1c-0.5,0-0.7,0.4-0.4,0.9l2,4.2h0.1l2.6-5
		l-1.2-0.1v-2h5.2v1.9l-0.7,0.1c-0.4,0-0.6,0.3-0.8,0.7l-3.8,7.1v4l1.9,0.1v2h-6.8v-1.9l1.3-0.1c0.5,0,0.7-0.2,0.7-0.7V-293.6z"/>
	<path id="XMLID_167_" class="st4" d="M1110.5-287.2c-4.3,0-7-2.8-7-8.3c0-6.1,3.9-8.3,7.2-8.3c3.6,0,6.8,2.2,6.8,8.3
		C1117.5-289.9,1114.7-287.2,1110.5-287.2z M1110.6-289.6c3,0,3.9-2.9,3.9-5.8c0-2.4-0.6-5.9-4-5.9c-3.1,0-4.1,2.9-4.1,5.7
		C1106.5-292.8,1107.2-289.6,1110.6-289.6z"/>
	<path id="XMLID_165_" class="st4" d="M1134.6-292.7c0,2.4,1.2,3,3.1,3c1.9,0,3.1-1,3.1-2.9v-8.8l-1.4-0.1v-2h5.7v1.9l-0.8,0.1
		c-0.4,0-0.7,0.2-0.7,0.7v8.6c0,3.1-2.4,5-6,5c-3.9,0-6-1.6-6-5.4v-8.8l-1.4-0.1v-2h5.8v1.9l-0.8,0.1c-0.5,0-0.7,0.2-0.7,0.8V-292.7
		z"/>
	<path id="XMLID_145_" class="st4" d="M1157.9-289.4l0.8-0.1c0.4,0,0.7-0.2,0.7-0.7v-11.2l-1.4-0.1v-2h6.6c3.5,0,5.8,1.2,5.8,4.4
		c0,2.4-1.6,3.7-2.9,4.2c0.6,0.2,1,0.6,1.4,1.5l1.7,3.8l1.4,0v2h-5.9v-1.9l0.7-0.1c0.6-0.1,0.7-0.3,0.5-0.8l-1.1-2.4
		c-0.3-0.7-0.7-1.1-1.5-1.1h-2.2v4.2l1.6,0.1v2h-6V-289.4z M1164.4-296c2,0,3-0.9,3-2.6c0-2.2-1.2-2.4-3.3-2.4h-1.8v5.1H1164.4z"/>
	<path id="XMLID_143_" class="st4" d="M1208-290.9h0.1l3.4-10.4l-1.5-0.1v-2h5.5v1.9l-0.8,0.1c-0.4,0-0.6,0.2-0.7,0.7l-4.5,13.2
		h-3.1l-4.9-13.8l-1.4-0.1v-2h6.2v1.9l-0.8,0.1c-0.5,0-0.9,0.3-0.7,0.8L1208-290.9z"/>
	<path id="XMLID_140_" class="st4" d="M1234.3-287.2c-4.3,0-7-2.8-7-8.3c0-6.1,3.9-8.3,7.2-8.3c3.6,0,6.8,2.2,6.8,8.3
		C1241.3-289.9,1238.5-287.2,1234.3-287.2z M1234.4-289.6c3,0,3.9-2.9,3.9-5.8c0-2.4-0.6-5.9-4-5.9c-3.1,0-4.1,2.9-4.1,5.7
		C1230.3-292.8,1231-289.6,1234.4-289.6z"/>
	<path id="XMLID_138_" class="st4" d="M1256.1-301.3l-1.4-0.1v-2h5.8v1.9l-0.8,0.1c-0.4,0-0.7,0.2-0.7,0.8v11.1l1.4,0.1v2h-5.8v-1.9
		l0.8-0.1c0.5,0,0.7-0.2,0.7-0.8V-301.3z"/>
	<path id="XMLID_136_" class="st4" d="M1281.2-301.4c-3,0-4.5,2.2-4.5,5.8c0,3.8,1.2,6.1,4.6,6c0.7,0,1.3-0.1,1.8-0.2
		c0.4-0.1,0.5-0.3,0.5-0.8v-1.9l2.4,0.2v4.2c-1.3,0.7-3.2,1-4.8,1c-4.9,0-7.5-2.7-7.5-8.2c0-6.3,3.8-8.4,7.5-8.4
		c1.4,0,3.1,0.3,4.5,1v4.1l-2.4,0.2v-1.9c0-0.5-0.1-0.6-0.5-0.8C1282.3-301.3,1281.7-301.4,1281.2-301.4z"/>
	<path id="XMLID_134_" class="st4" d="M1299.5-287.5v-1.9l0.8-0.1c0.4,0,0.7-0.2,0.7-0.7v-11.2l-1.4-0.1v-2h11v4l-2.4,0.2v-1
		c0-0.5,0-0.7-0.7-0.7h-3.6v4.1h5.5v2.4h-5.5v4.5h3.9c0.6,0,0.7-0.3,0.7-0.8v-1.2l2.4,0.2v4.3H1299.5z"/>
	<path id="XMLID_132_" class="st4" d="M1341.9-301.3l-1.4-0.1v-2h5.8v1.9l-0.8,0.1c-0.4,0-0.7,0.2-0.7,0.8v11.1l1.4,0.1v2h-5.8v-1.9
		l0.8-0.1c0.5,0,0.7-0.2,0.7-0.8V-301.3z"/>
	<path id="XMLID_127_" class="st4" d="M1359.3-289.4l0.9-0.1c0.4,0,0.6-0.2,0.6-0.7v-11.2l-1.4-0.1v-2h4.3l6.8,11h0v-8.9l-1.6-0.1
		v-2h5.9v1.9l-0.9,0.1c-0.4,0-0.6,0.2-0.6,0.7v13.2h-2.8l-6.9-11.2h0v9.1l1.6,0.1v2h-5.9V-289.4z"/>
	<path id="XMLID_125_" class="st4" d="M1408.6-301.1h-1.9c-0.5,0-0.6,0.3-0.6,0.7v1.1l-2.4-0.2v-4.1h12.6v4.1l-2.4,0.2v-1.1
		c0-0.5,0-0.7-0.7-0.7h-1.6v11.5l1.9,0.1v2h-6.8v-1.9l1.3-0.1c0.5,0,0.7-0.2,0.7-0.7V-301.1z"/>
	<path id="XMLID_122_" class="st4" d="M1440.1-294.4h-6.8v4.8l1.4,0.1v2h-5.8v-1.9l0.8-0.1c0.4,0,0.7-0.2,0.7-0.7v-11.2l-1.4-0.1v-2
		h5.8v1.9l-0.8,0.1c-0.5,0-0.7,0.2-0.7,0.8v3.7h6.8v-4.4l-1.4-0.1v-2h5.8v1.9l-0.8,0.1c-0.4,0-0.7,0.2-0.7,0.8v11.1l1.4,0.1v2h-5.8
		v-1.9l0.8-0.1c0.5,0,0.7-0.2,0.7-0.8V-294.4z"/>
	<path id="XMLID_120_" class="st4" d="M1457.5-287.5v-1.9l0.8-0.1c0.4,0,0.7-0.2,0.7-0.7v-11.2l-1.4-0.1v-2h11v4l-2.4,0.2v-1
		c0-0.5,0-0.7-0.7-0.7h-3.6v4.1h5.5v2.4h-5.5v4.5h3.9c0.6,0,0.7-0.3,0.7-0.8v-1.2l2.4,0.2v4.3H1457.5z"/>
	<path id="XMLID_118_" class="st4" d="M1506.4-291.9c0-1.5-1.4-1.9-3-2.4c-2.4-0.6-4.6-1.6-4.6-4.7c0-2.9,2.3-4.7,5.6-4.7
		c1.6,0,3.1,0.3,4.5,1v3.6l-2.4,0.2v-1.4c0-0.5-0.1-0.6-0.5-0.8c-0.5-0.1-1.1-0.2-1.6-0.2c-1.4,0-2.5,0.6-2.5,2.1s1.4,1.9,3.2,2.4
		c2.2,0.7,4.5,1.7,4.5,4.8c0,3.2-2.5,4.9-5.8,4.9c-1.9,0-3.4-0.3-4.8-1v-3.8l2.4-0.2v1.5c0,0.5,0.1,0.6,0.5,0.8
		c0.5,0.1,1.1,0.2,1.7,0.2C1505.1-289.6,1506.4-290.1,1506.4-291.9z"/>
	<path id="XMLID_116_" class="st4" d="M1524-301.3l-1.4-0.1v-2h5.8v1.9l-0.8,0.1c-0.4,0-0.7,0.2-0.7,0.8v5.3l4.9-6l-1.3-0.1v-2h5.6
		v1.9l-0.8,0.1c-0.4,0-0.6,0.3-1,0.7l-3.4,4.2l4.2,7l1.3,0.1v2h-6.1v-1.9l0.7-0.1c0.5,0,0.6-0.3,0.4-0.8l-2.4-4.1l-2.1,2.5v2.2
		l1.4,0.1v2h-5.8v-1.9l0.8-0.1c0.5,0,0.7-0.2,0.7-0.8V-301.3z"/>
	<path id="XMLID_114_" class="st4" d="M1553.6-293.6l-4.1-7.8l-1.1-0.1v-2h5.9v1.9l-0.7,0.1c-0.5,0-0.7,0.4-0.4,0.9l2,4.2h0.1l2.6-5
		l-1.2-0.1v-2h5.2v1.9l-0.7,0.1c-0.4,0-0.6,0.3-0.8,0.7l-3.8,7.1v4l1.9,0.1v2h-6.8v-1.9l1.3-0.1c0.5,0,0.7-0.2,0.7-0.7V-293.6z"/>
</g>
<linearGradient id="XMLID_184_" gradientUnits="userSpaceOnUse" x1="1046.3605" y1="-324.1242" x2="1589.6938" y2="-324.1242">
	<stop  offset="0" style="stop-color:#FFFFFF;stop-opacity:0"/>
	<stop  offset="0.4086" style="stop-color:#FFFFFF"/>
	<stop  offset="1" style="stop-color:#FFFFFF"/>
</linearGradient>
<rect id="XMLID_112_" x="1046.4" y="-326.1" class="st10" width="543.3" height="4"/>
</svg>
