<?xml version="1.0" encoding="utf-8"?>
<!-- Generator: Adobe Illustrator 19.0.0, SVG Export Plug-In . SVG Version: 6.00 Build 0)  -->
<svg version="1.1" id="Capa_1" xmlns="http://www.w3.org/2000/svg" xmlns:xlink="http://www.w3.org/1999/xlink" x="0px" y="0px"
	 viewBox="-260 728 46 46" style="enable-background:new -260 728 46 46;" xml:space="preserve">
<style type="text/css">
	.st0{display:none;}
	.st1{display:inline;}
	.st2{fill:#CD950C;}
	.st3{display:none;fill:#CD950C;}
</style>
<g id="XMLID_33_" class="st0">
	<g id="XMLID_34_" class="st1">
		<path id="XMLID_35_" class="st2" d="M-237,728.2c-8.8,0-16.1,7.2-16.1,16c0,3,0.8,5.9,2.4,8.4l12.7,20.5c0.2,0.4,0.7,0.6,1.1,0.6
			c0,0,0,0,0,0c0.5,0,0.9-0.3,1.1-0.7l12.4-20.7c1.5-2.5,2.3-5.3,2.3-8.2C-221,735.4-228.2,728.2-237,728.2z M-225.6,751.1
			l-11.3,18.8l-11.6-18.7c-1.3-2.1-2-4.5-2-7c0-7.4,6-13.4,13.4-13.4c7.4,0,13.4,6,13.4,13.4C-223.7,746.6-224.3,749-225.6,751.1z"
			/>
	</g>
</g>
<g id="XMLID_28_" class="st0">
	<g id="XMLID_29_" class="st1">
		<path id="XMLID_30_" class="st2" d="M-237,736.2c-4.4,0-8,3.6-8,8c0,4.4,3.5,8,8,8c4.5,0,8-3.7,8-8
			C-229,739.8-232.6,736.2-237,736.2z M-237,749.6c-3,0-5.4-2.4-5.4-5.4c0-2.9,2.4-5.4,5.4-5.4c2.9,0,5.4,2.4,5.4,5.4
			C-231.7,747.1-234,749.6-237,749.6z"/>
	</g>
</g>
<path id="XMLID_38_" class="st3" d="M-214,737.5c0-2.2-1.8-4-4-4H-256c-2.2,0-4,1.8-4,4v27c0,2.2,1.8,4,4,4h37.9c2.2,0,4-1.8,4-4
	V737.5z M-257.3,738.1l13,12.9l-13,13V738.1z M-236.9,754.5l-18.5-18.3h36.8L-236.9,754.5z M-242.4,752.8l4.6,4.5
	c0.5,0.5,1.4,0.5,1.9,0l4.4-4.4l12.9,12.9h-36.8L-242.4,752.8z M-229.6,751l12.9-12.9v25.8L-229.6,751z"/>
<g id="XMLID_44_">
	<g id="XMLID_45_">
		<path id="XMLID_48_" class="st2" d="M-223.7,756.5c-0.9-1-2.1-1.5-3.3-1.5c-1.2,0-2.3,0.5-3.3,1.5l-3.1,3.1
			c-0.3-0.1-0.5-0.3-0.7-0.4c-0.3-0.2-0.7-0.3-1-0.5c-2.9-1.8-5.5-4.2-8-7.3c-1.2-1.5-2-2.8-2.6-4.1c0.8-0.7,1.5-1.5,2.2-2.2
			c0.3-0.3,0.5-0.6,0.8-0.8c2-2,2-4.7,0-6.7l-2.6-2.6c-0.3-0.3-0.6-0.6-0.9-0.9c-0.6-0.6-1.2-1.2-1.8-1.8c-0.9-0.9-2.1-1.4-3.2-1.4
			s-2.3,0.5-3.3,1.4c0,0,0,0,0,0l-3.3,3.3c-1.2,1.2-1.9,2.8-2.1,4.5c-0.2,2.8,0.6,5.5,1.2,7.2c1.6,4.2,3.9,8.2,7.4,12.4
			c4.2,5.1,9.4,9.1,15.2,11.9c2.2,1.1,5.2,2.3,8.5,2.5c0.2,0,0.4,0,0.6,0c2.2,0,4.1-0.8,5.6-2.4c0,0,0,0,0,0
			c0.5-0.6,1.1-1.2,1.7-1.8c0.4-0.4,0.8-0.8,1.3-1.3c1-1,1.5-2.2,1.5-3.4c0-1.2-0.5-2.4-1.5-3.3L-223.7,756.5z M-220.2,766.7
			C-220.2,766.7-220.2,766.7-220.2,766.7c-0.4,0.4-0.8,0.8-1.2,1.2c-0.6,0.6-1.3,1.2-1.9,1.9c-1,1-2.1,1.5-3.6,1.5
			c-0.1,0-0.3,0-0.4,0c-2.9-0.2-5.6-1.3-7.6-2.3c-5.5-2.7-10.3-6.4-14.3-11.2c-3.3-4-5.5-7.7-7-11.6c-0.9-2.4-1.2-4.3-1.1-6.1
			c0.1-1.1,0.5-2.1,1.3-2.9l3.3-3.3c0.5-0.4,1-0.7,1.5-0.7c0.6,0,1.1,0.4,1.4,0.7c0,0,0,0,0,0c0.6,0.6,1.2,1.1,1.7,1.7
			c0.3,0.3,0.6,0.6,0.9,0.9l2.6,2.6c1,1,1,2,0,3c-0.3,0.3-0.6,0.6-0.8,0.8c-0.8,0.8-1.6,1.6-2.4,2.4c0,0,0,0,0,0
			c-0.8,0.8-0.7,1.6-0.5,2.2c0,0,0,0.1,0,0.1c0.7,1.7,1.7,3.2,3.1,5.1l0,0c2.7,3.3,5.5,5.9,8.6,7.8c0.4,0.3,0.8,0.5,1.2,0.6
			c0.3,0.2,0.7,0.3,1,0.5c0,0,0.1,0,0.1,0.1c0.3,0.2,0.6,0.2,1,0.2c0.8,0,1.3-0.5,1.5-0.7l3.3-3.3c0.3-0.3,0.9-0.7,1.5-0.7
			c0.6,0,1.1,0.4,1.4,0.7c0,0,0,0,0,0l5.3,5.3C-219.2,764.7-219.2,765.7-220.2,766.7z"/>
		<path id="XMLID_47_" class="st2" d="M-235.1,739c2.5,0.4,4.8,1.6,6.7,3.5c1.8,1.8,3,4.1,3.5,6.7c0.1,0.6,0.7,1.1,1.3,1.1
			c0.1,0,0.1,0,0.2,0c0.7-0.1,1.2-0.8,1.1-1.5c-0.5-3.1-2-5.9-4.2-8.1c-2.2-2.2-5-3.7-8.1-4.2c-0.7-0.1-1.4,0.4-1.5,1.1
			C-236.3,738.2-235.9,738.8-235.1,739z"/>
		<path id="XMLID_46_" class="st2" d="M-214.1,748.3c-0.9-5.1-3.2-9.7-6.9-13.3c-3.7-3.7-8.3-6-13.3-6.9c-0.7-0.1-1.4,0.4-1.5,1.1
			c-0.1,0.7,0.4,1.4,1.1,1.5c4.5,0.8,8.6,2.9,11.9,6.2c3.3,3.3,5.4,7.4,6.2,11.9c0.1,0.6,0.7,1.1,1.3,1.1c0.1,0,0.1,0,0.2,0
			C-214.4,749.7-214,749-214.1,748.3z"/>
	</g>
</g>
</svg>
