<?xml version="1.0" encoding="utf-8"?>
<!-- Generator: Adobe Illustrator 19.0.0, SVG Export Plug-In . SVG Version: 6.00 Build 0)  -->
<svg version="1.1" id="Layer_1" xmlns="http://www.w3.org/2000/svg" xmlns:xlink="http://www.w3.org/1999/xlink" x="0px" y="0px"
	 viewBox="0 0 206 206" style="enable-background:new 0 0 206 206;" xml:space="preserve">
<style type="text/css">
	.st0{fill:url(#XMLID_3_);}
	.st1{fill:#FFFFFF;}
</style>
<linearGradient id="XMLID_3_" gradientUnits="userSpaceOnUse" x1="103.0209" y1="0" x2="103.0209" y2="206.1601">
	<stop  offset="0" style="stop-color:#725A24"/>
	<stop  offset="7.815214e-002" style="stop-color:#917630"/>
	<stop  offset="0.187" style="stop-color:#BB9C41"/>
	<stop  offset="0.2778" style="stop-color:#D8B84E"/>
	<stop  offset="0.3387" style="stop-color:#E6C554"/>
	<stop  offset="0.7635" style="stop-color:#917630"/>
	<stop  offset="1" style="stop-color:#725A24"/>
</linearGradient>
<path id="XMLID_52_" class="st0" d="M205.5,103.1c0,51.3-37.2,93.8-85.9,101.7c-5.4,0.9-10.9,1.3-16.5,1.3
	c-27.5,0-52.5-10.9-70.9-28.7c-19.5-18.8-31.6-45.2-31.6-74.4C0.5,46.1,46.4,0,103,0C159.6,0,205.5,46.1,205.5,103.1z"/>
<g id="XMLID_142_">
	<g id="XMLID_197_">
		<path id="XMLID_213_" class="st1" d="M74,97l8.9,24.4l3.5,1.3l-0.4,2.8H74.4l-0.4-2.8l3.1-1.3l-1.8-4.8H66l-1.9,4.8l3.7,1.2
			l-0.4,2.9h-9.9l-0.4-2.8l3.5-1.3l9.1-23.8L74,97z M71.7,106.8v-4.5l-4.5,11.3h7L71.7,106.8z"/>
		<path id="XMLID_210_" class="st1" d="M98,123.1l-0.5,2.4h-9.1l-0.5-2.4l2.5-0.9v-12.9h-1.8l-0.4-2.4l4.9-0.4l2.4,0.4v15.3
			L98,123.1z M95.2,100.4c0,1.4-1.2,2.6-2.6,2.6c-1.4,0-2.6-1.2-2.6-2.6c0-1.4,1.2-2.6,2.6-2.6C94.1,97.8,95.2,98.9,95.2,100.4z"/>
		<path id="XMLID_208_" class="st1" d="M114.2,112.5l-0.9-2.9c-0.3-0.1-1-0.2-1.6-0.2c-0.8,0-2.4,0.4-3.6,0.8v12.1l3.3,0.9l-0.5,2.4
			h-9.9l-0.5-2.4l2.5-0.9v-12.9h-1.8l-0.5-2.4l5.2-0.4l1.6,1c1.2-0.4,3.3-1,5.1-1c1.2,0,2.6,0.3,4.1,0.9v4.6L114.2,112.5z"/>
		<path id="XMLID_206_" class="st1" d="M129,123.1l-0.5,2.4h-9.5l-0.5-2.4l2.7-0.9V98.7h-2.1l-0.4-2.3l5.2-0.6l2.3,0.6v25.8
			L129,123.1z"/>
		<path id="XMLID_203_" class="st1" d="M141.8,123.1l-0.5,2.4h-9.1l-0.5-2.4l2.5-0.9v-12.9h-1.8l-0.4-2.4l4.9-0.4l2.4,0.4v15.3
			L141.8,123.1z M139.1,100.4c0,1.4-1.2,2.6-2.6,2.6c-1.4,0-2.6-1.2-2.6-2.6c0-1.4,1.2-2.6,2.6-2.6
			C137.9,97.8,139.1,98.9,139.1,100.4z"/>
		<path id="XMLID_201_" class="st1" d="M151.9,110.2v12.1l2.5,0.9l-0.4,2.4h-9.2l-0.4-2.4l2.5-0.9v-12.9h-1.8l-0.4-2.4l5.1-0.4
			l1.6,1c1.3-0.4,3.3-1,5-1c4.6,0,7.6,2.4,7.6,6.7v9l2.5,0.9l-0.5,2.4h-9.1l-0.5-2.4l2.5-0.9v-9.6c0-2.1-1.8-3.3-3.5-3.3
			C154.4,109.4,153,109.8,151.9,110.2z"/>
		<path id="XMLID_198_" class="st1" d="M186.2,121.2l1.4,2c-2.5,2.1-5.1,2.7-7.7,2.7c-7.6,0-10.9-3.9-10.9-9.8
			c0-6.1,4.5-9.7,10.2-9.7c4.8,0,8.7,2.5,8.7,6.4c0,1.1-0.4,2.5-0.9,3.3h-12.5c0.1,4,2.2,6.8,5.6,6.8
			C182.1,123.1,184.2,122.6,186.2,121.2z M182.8,113.8c0.1-0.4,0.1-0.8,0.1-1.2c0-2.3-1.6-3.7-3.7-3.7c-2.6,0-4.3,2-4.6,4.8H182.8z"
			/>
	</g>
</g>
<path id="XMLID_266_" class="st1" d="M71.2,32.8l1.4-0.6c2.2,1.1,4.4,2.3,6.6,3.5c4.3-2.2,8.7-4.5,13.1-6.4L82,8.8l1.8-0.7
	c2.3,2.5,4.4,5.1,6.6,7.6l1.4-0.6c0.5-0.2,1,0,1.2,0.5c0.2,0.5,0,1-0.5,1.2l-0.8,0.3l2.6,3.1l1.4-0.6c0.5-0.2,1,0,1.2,0.5
	c0.2,0.5,0,1-0.5,1.2l-0.8,0.3c1,1.2,1.9,2.4,2.9,3.5c0.9,1.1,0.5,0.4,0.9,1.1c3.6-1.4,7.2-2.8,10.9-3.9c1.2-0.3,2.8-0.9,4.1-0.7
	c1,0.2,1.9,0.7,2.3,1.7c0.4,1,0,2-0.5,2.8c-1.2,1.8-12.2,6.4-14,7.2c0.3,4,0.2,2,0.5,6l0.8-0.3c0.5-0.2,1,0,1.2,0.5
	c0.2,0.5,0,1-0.5,1.2l-1.4,0.6l0.3,4l0.7-0.3c0.5-0.2,1,0,1.2,0.5c0.2,0.5,0,1-0.5,1.2l-1.3,0.5l0,0c0.3,3.4,0.5,6.7,0.5,10.1
	l-1.8,0.7c-2.1-6.7-2.2-7-4.2-13.8c-0.8-2.7-1.6-5.5-2.6-8.1c-4.5,1.7-9.2,3.1-13.8,4.5c-0.8,2.4-1.3,4.9-2.3,7.2l-1.4,0.6
	c-0.5-2.1-0.6-4.3-1.1-6.5c-0.3-1.1-0.8-2.1-1.2-3.2L71.2,32.8z"/>
<path id="XMLID_49_" class="st1" d="M119.6,204.8c-5.4,0.9-10.9,1.3-16.5,1.3c-27.5,0-52.5-10.9-70.9-28.5
	C8.5,146.5,6.2,103.3,29.4,70.8C44.7,49.4,68,37,92.7,34.6c-17.4,5.2-33.2,15.9-44.5,31.6c-27.6,38.6-17.7,93.1,22.2,121.6
	C85.4,198.6,102.6,204.2,119.6,204.8z"/>
<g id="XMLID_134_">
	<g id="XMLID_68_">
		<path id="XMLID_77_" class="st1" d="M57.5,66.8h15.7v5.3l-1.9,0.3l-1.4-3.8h-2.8v13.8l2.2,0.8l-0.3,1.9h-7.5l-0.3-1.9l2.2-0.8
			V68.7h-2.8l-1.4,3.8l-1.9-0.3V66.8z"/>
		<path id="XMLID_75_" class="st1" d="M81.3,83.5L81,85.1h-5.9l-0.3-1.6l1.6-0.6V67.5h-1.4L74.6,66l3.5-0.4l1.5,0.4v7.3
			c0.7-0.3,2.1-0.7,3-0.7c3,0,4.9,1.3,4.9,4.2V83l1.6,0.6l-0.3,1.6h-6l-0.3-1.6l1.7-0.6v-6.5c0-1.4-0.8-1.9-1.8-1.9
			c-0.9,0-2.1,0.2-2.8,0.5V83L81.3,83.5z"/>
		<path id="XMLID_69_" class="st1" d="M102.3,82.3l0.9,1.3c-1.7,1.4-3.3,1.8-5,1.8c-5,0-7.1-2.5-7.1-6.4c0-4,3-6.4,6.7-6.4
			c3.1,0,5.7,1.7,5.7,4.2c0,0.7-0.3,1.6-0.6,2.2h-8.2c0.1,2.6,1.4,4.5,3.7,4.5C99.6,83.5,101,83.2,102.3,82.3z M100.1,77.4
			c0.1-0.3,0.1-0.5,0.1-0.8c0-1.5-1-2.4-2.4-2.4c-1.7,0-2.8,1.3-3,3.2H100.1z"/>
	</g>
</g>
<g id="XMLID_2_">
	<g id="XMLID_230_">
		<path id="XMLID_249_" class="st1" d="M63.1,150.8l2.4,0.9l-0.3,2.1h-8.1l-0.3-2.1l2.4-0.9v-14.3l-2.4-1l0.3-2.1h10
			c4.3,0,6.7,2.2,6.7,5.8c0,3.1-3.2,5.4-6,5.4l1.9,1l2.9,5.1l2.5,0.9l-0.3,2.1h-6.3l0.3-1.6l-4.3-7.5v-1.8h1.8
			c2.2,0,3.6-1.9,3.6-3.6c0-2.1-1.3-3.8-3.8-3.8h-2.8V150.8z"/>
		<path id="XMLID_246_" class="st1" d="M88.7,150.7l1,1.5c-1.8,1.5-3.7,2-5.6,2c-5.5,0-7.9-2.8-7.9-7.1c0-4.4,3.3-7.1,7.4-7.1
			c3.5,0,6.3,1.8,6.3,4.7c0,0.8-0.3,1.8-0.6,2.4h-9.1c0.1,2.9,1.6,4.9,4.1,4.9C85.7,152,87.2,151.6,88.7,150.7z M86.1,145.3
			c0.1-0.3,0.1-0.6,0.1-0.8c0-1.7-1.2-2.7-2.7-2.7c-1.9,0-3.1,1.4-3.3,3.5H86.1z"/>
		<path id="XMLID_244_" class="st1" d="M100.4,153.8l-2.7,0.3l-5-11.4l-1.9-0.6l0.3-1.8H98l0.3,1.8l-1.6,0.6l2.5,5.5v2.6l3.6-8.2
			l-1.7-0.6l0.3-1.8h5.1l0.3,1.8l-1.9,0.6L100.4,153.8z"/>
		<path id="XMLID_241_" class="st1" d="M115.7,152l-0.3,1.8h-6.6l-0.3-1.8l1.8-0.6v-9.3h-1.3l-0.3-1.8l3.5-0.3l1.8,0.3v11.1
			L115.7,152z M113.7,135.5c0,1-0.8,1.9-1.9,1.9c-1,0-1.9-0.9-1.9-1.9c0-1,0.9-1.9,1.9-1.9C112.8,133.6,113.7,134.5,113.7,135.5z"/>
		<path id="XMLID_238_" class="st1" d="M130.5,150.7l1,1.5c-1.8,1.5-3.7,2-5.6,2c-5.5,0-7.9-2.8-7.9-7.1c0-4.4,3.3-7.1,7.4-7.1
			c3.5,0,6.3,1.8,6.3,4.7c0,0.8-0.3,1.8-0.6,2.4H122c0.1,2.9,1.6,4.9,4.1,4.9C127.5,152,129,151.6,130.5,150.7z M128,145.3
			c0.1-0.3,0.1-0.6,0.1-0.8c0-1.7-1.2-2.7-2.7-2.7c-1.9,0-3.1,1.4-3.3,3.5H128z"/>
		<path id="XMLID_236_" class="st1" d="M145.1,146.4V144l-3.2,9.7l-3.3,0.3l-3.6-11.4l-2-0.6l0.3-1.8h6.7l0.3,1.8l-1.7,0.6l1.8,5.5
			v2.5l3.4-10.4l2.9-0.4l2.6,8.3v1.9l2.6-7.5l-1.7-0.6l0.3-1.8h5.1l0.3,1.8l-2,0.6l-3.6,11.1l-3.1,0.3L145.1,146.4z"/>
		<path id="XMLID_233_" class="st1" d="M169.7,150.7l1,1.5c-1.8,1.5-3.7,2-5.6,2c-5.5,0-7.9-2.8-7.9-7.1c0-4.4,3.3-7.1,7.4-7.1
			c3.5,0,6.3,1.8,6.3,4.7c0,0.8-0.3,1.8-0.6,2.4h-9.1c0.1,2.9,1.6,4.9,4.1,4.9C166.8,152,168.3,151.6,169.7,150.7z M167.2,145.3
			c0.1-0.3,0.1-0.6,0.1-0.8c0-1.7-1.2-2.7-2.7-2.7c-1.9,0-3.1,1.4-3.3,3.5H167.2z"/>
		<path id="XMLID_231_" class="st1" d="M182.8,144.3l-0.7-2.1c-0.2-0.1-0.8-0.1-1.2-0.1c-0.6,0-1.8,0.3-2.6,0.6v8.8l2.4,0.6
			l-0.3,1.8h-7.2L173,152l1.8-0.6v-9.3h-1.3l-0.3-1.8l3.8-0.3l1.2,0.8c0.9-0.3,2.4-0.8,3.7-0.8c0.9,0,1.9,0.2,3,0.6v3.4L182.8,144.3
			z"/>
	</g>
</g>
</svg>
